Building DAG of jobs...
Using shell: /bin/bash
Provided cores: 4
Rules claiming more threads will be scaled down.
Job counts:
	count	jobs
	1	all
	1	mageck_mle
	1	mageck_qc
	1	mageck_rra
	1	vispr
	5

[Wed Jul 29 21:15:22 2020]
rule mageck_mle:
    input: rawcount/rawcount.txt, designmatrix.txt
    output: results/test/ESC-mle.gene_summary.txt, results/test/ESC-mle.sgrna_summary.txt
    log: logs/mageck/test/ESC-mle.log
    jobid: 2
    wildcards: experiment=ESC-mle


[Wed Jul 29 21:15:22 2020]
rule mageck_rra:
    input: rawcount/rawcount.txt
    output: results/test/ESC-mle.rra.gene_summary.txt, results/test/ESC-mle.rra.sgrna_summary.txt
    log: logs/mageck/test/ESC-mle.rra.log
    jobid: 3
    wildcards: experiment=ESC-mle.rra

InputFunctionException in line 189 of /rerun_datasets/esc_dataset/esc-testdata2-counttable/Snakefile:
Error:
  KeyError: 'ESC-mle.rra'
Wildcards:
  experiment=ESC-mle.rra
Traceback:
  File "/rerun_datasets/esc_dataset/esc-testdata2-counttable/Snakefile", line 199, in <lambda>
  File "/rerun_datasets/esc_dataset/esc-testdata2-counttable/Snakefile", line 39, in rra_treatment_string
  File "/opt/conda/lib/python3.7/site-packages/snakemake/executors/__init__.py", line 115, in run_jobs
  File "/opt/conda/lib/python3.7/site-packages/snakemake/executors/__init__.py", line 402, in run
  File "/opt/conda/lib/python3.7/site-packages/snakemake/executors/__init__.py", line 203, in _run
  File "/opt/conda/lib/python3.7/site-packages/snakemake/executors/__init__.py", line 131, in _run
  File "/opt/conda/lib/python3.7/site-packages/snakemake/executors/__init__.py", line 137, in printjob
